Simple Visualizations About Covid19 Cases Using ggplot2
…
Downloading confirmed cases data from JHU repo and loading into R:

time_series_raw_confirmed <- read.csv("https://raw.githubusercontent.com/CSSEGISandData/COVID-19/master/csse_covid_19_data/csse_covid_19_time_series/time_series_covid19_confirmed_global.csv")

Checking out the dimensions:

dim(time_series_raw_confirmed)

## [1] 266 106

Checking out the first few rows and columns:

as_tibble(time_series_raw_confirmed)

## # A tibble: 266 x 106
##    Province.State Country.Region   Lat   Long X1.22.20 X1.23.20 X1.24.20
##    <fct>          <fct>          <dbl>  <dbl>    <int>    <int>    <int>
##  1 ""             Afghanistan     33    65           0        0        0
##  2 ""             Albania         41.2  20.2         0        0        0
##  3 ""             Algeria         28.0   1.66        0        0        0
##  4 ""             Andorra         42.5   1.52        0        0        0
##  5 ""             Angola         -11.2  17.9         0        0        0
##  6 ""             Antigua and B~  17.1 -61.8         0        0        0
##  7 ""             Argentina      -38.4 -63.6         0        0        0
##  8 ""             Armenia         40.1  45.0         0        0        0
##  9 "Australian C~ Australia      -35.5 149.          0        0        0
## 10 "New South Wa~ Australia      -33.9 151.          0        0        0
## # ... with 256 more rows, and 99 more variables: X1.25.20 <int>,
## #   X1.26.20 <int>, X1.27.20 <int>, X1.28.20 <int>, X1.29.20 <int>,
## #   X1.30.20 <int>, X1.31.20 <int>, X2.1.20 <int>, X2.2.20 <int>,
## #   X2.3.20 <int>, X2.4.20 <int>, X2.5.20 <int>, X2.6.20 <int>, X2.7.20 <int>,
## #   X2.8.20 <int>, X2.9.20 <int>, X2.10.20 <int>, X2.11.20 <int>,
## #   X2.12.20 <int>, X2.13.20 <int>, X2.14.20 <int>, X2.15.20 <int>,
## #   X2.16.20 <int>, X2.17.20 <int>, X2.18.20 <int>, X2.19.20 <int>,
## #   X2.20.20 <int>, X2.21.20 <int>, X2.22.20 <int>, X2.23.20 <int>,
## #   X2.24.20 <int>, X2.25.20 <int>, X2.26.20 <int>, X2.27.20 <int>,
…
Cleaning previously loaded data into new tidy dataset:

time_series_tidy_confirmed <- time_series_raw_confirmed %>% tidydatafunction()

Checking out new, tidy dataset:

as_tibble(time_series_tidy_confirmed) %>%
  arrange(desc(accumulated_cases)) # Sorting desc. to see top numbers

## # A tibble: 19,074 x 3
##    country date       accumulated_cases
##    <fct>   <date>                 <int>
##  1 US      2020-05-02           1132539
##  2 US      2020-05-01           1103461
##  3 US      2020-04-30           1069424
##  4 US      2020-04-29           1039909
##  5 US      2020-04-28           1012582
##  6 US      2020-04-27            988197
##  7 US      2020-04-26            965785
##  8 US      2020-04-25            938154
##  9 US      2020-04-24            905358
## 10 US      2020-04-23            869170
## # ... with 19,064 more rows

Adding daily cases as calculated field from accumulated cases and saving as a new data frame:

time_series_tidy_confirmed_with_daily <- time_series_tidy_confirmed %>%
  group_by(country) %>% # Group by country
  arrange(country, date) %>% # Sort asc. by country and then date
  mutate(daily_cases = c(0,diff(accumulated_cases))) # Calculate daily cases
time_series_tidy_confirmed_with_daily %>%
  arrange(desc(accumulated_cases)) # Sorting desc. to see top numbers

## # A tibble: 19,074 x 4
## # Groups:   country [187]
##    country date       accumulated_cases daily_cases
##    <fct>   <date>                 <int>       <dbl>
##  1 US      2020-05-02           1132539       29078
##  2 US      2020-05-01           1103461       34037
##  3 US      2020-04-30           1069424       29515
##  4 US      2020-04-29           1039909       27327
##  5 US      2020-04-28           1012582       24385
##  6 US      2020-04-27            988197       22412
##  7 US      2020-04-26            965785       27631
##  8 US      2020-04-25            938154       32796
##  9 US      2020-04-24            905358       36188
## 10 US      2020-04-23            869170       28819
## # ... with 19,064 more rows
…
